…
First, we’ll add a date column to represent the time series aspect of
our financial data, critical for any temporal analysis.

``` r
# Adding a 'Time' column with monthly intervals
Data <- Data %>%
  group_by(Stock) %>%
  mutate(Time = seq.Date(as.Date("2024-04-28"), by = "month", length.out = 6)) %>%
  ungroup()

# To avoid problem with future transformation always ungroup()
print(Data)
```

    ## # A tibble: 24 × 4
    ##    Stock  Price   Returns Time      
    ##    <chr>  <dbl>     <dbl> <date>    
    ##  1 StockA  111  NA        2024-04-28
    ##  2 StockA  115.  0.0382   2024-05-28
    ##  3 StockA  111. -0.0417   2024-06-28
    ##  4 StockA  111.  0.000566 2024-07-28
    ##  5 StockA  104. -0.0626   2024-08-28
    ##  6 StockA  105.  0.00593  2024-09-28
    ##  7 StockB   90  NA        2024-04-28
    ##  8 StockB  103.  0.135    2024-05-28
    ##  9 StockB  114.  0.0971   2024-06-28
    ## 10 StockB  112. -0.0123   2024-07-28
    ## # ℹ 14 more rows

Next, we leverage lubridate to extract the month from our ‘Time’ column,
facilitating seasonal or monthly analyses.

``` r
# Extracting the 'Month' from 'Time'
Data <- Data %>%
  mutate(Month = month(Time))
print(Data)
```

    ## # A tibble: 24 × 5
    ##    Stock  Price   Returns Time       Month
    ##    <chr>  <dbl>     <dbl> <date>     <dbl>
    ##  1 StockA  111  NA        2024-04-28     4
    ##  2 StockA  115.  0.0382   2024-05-28     5
    ##  3 StockA  111. -0.0417   2024-06-28     6
    ##  4 StockA  111.  0.000566 2024-07-28     7
    ##  5 StockA  104. -0.0626   2024-08-28     8
    ##  6 StockA  105.  0.00593  2024-09-28     9
    ##  7 StockB   90  NA        2024-04-28     4
    ##  8 StockB  103.  0.135    2024-05-28     5
    ##  9 StockB  114.  0.0971   2024-06-28     6
    ## 10 StockB  112. -0.0123   2024-07-28     7
    ## # ℹ 14 more rows
…
# Another approach  (not nest conditions)

Data <- Data %>%
  mutate(Season = case_when(
    Month %in% c(12, 1, 2) ~ "Winter",
    Month %in% c(3, 4, 5) ~ "Spring",
    Month %in% c(6, 7, 8) ~ "Summer",
    TRUE ~ "Autumn" # the last logical (TRUE by default: else)
  ))

print(Data)
```

    ## # A tibble: 24 × 6
    ##    Stock  Price   Returns Time       Month Season
    ##    <chr>  <dbl>     <dbl> <date>     <dbl> <chr> 
    ##  1 StockA  111  NA        2024-04-28     4 Spring
    ##  2 StockA  115.  0.0382   2024-05-28     5 Spring
    ##  3 StockA  111. -0.0417   2024-06-28     6 Summer
    ##  4 StockA  111.  0.000566 2024-07-28     7 Summer
    ##  5 StockA  104. -0.0626   2024-08-28     8 Summer
    ##  6 StockA  105.  0.00593  2024-09-28     9 Autumn
    ##  7 StockB   90  NA        2024-04-28     4 Spring
    ##  8 StockB  103.  0.135    2024-05-28     5 Spring
    ##  9 StockB  114.  0.0971   2024-06-28     6 Summer
    ## 10 StockB  112. -0.0123   2024-07-28     7 Summer
    ## # ℹ 14 more rows
…
